<?xml version="1.0"?>
<svg xmlns="http://www.w3.org/2000/svg" xmlns:xlink="http://www.w3.org/1999/xlink" version="1.1" id="Capa_1" x="0px" y="0px" width="512px" height="512px" viewBox="0 0 35.058 35.057" style="enable-background:new 0 0 35.058 35.057;" xml:space="preserve"><g><g>
	<path d="M23.408,19.798L6.607,34.327c-0.556,0.48-1.255,0.73-1.963,0.73c-0.423,0-0.848-0.09-1.247-0.271   c-1.068-0.487-1.752-1.555-1.752-2.729V3.001c0-1.174,0.685-2.24,1.752-2.729c1.068-0.488,2.322-0.309,3.21,0.459l16.801,14.527   c0.659,0.569,1.038,1.397,1.038,2.27S24.067,19.227,23.408,19.798z M32.72,16.014L15.92,1.488   c-0.836-0.724-2.099-0.631-2.821,0.204c-0.723,0.836-0.631,2.1,0.205,2.82l15.052,13.016L13.305,30.546   c-0.835,0.723-0.927,1.983-0.205,2.819c0.396,0.457,0.953,0.691,1.514,0.691c0.463,0,0.929-0.16,1.307-0.487L32.72,19.042   c0.439-0.382,0.692-0.934,0.692-1.515S33.161,16.395,32.72,16.014z" data-original="#000000" class="active-path" data-old_color="#000000" fill="#FFFFFF"/>
</g></g> </svg>
